{
  "//": {
    "metadata": {
      "version": "0.0.17",
      "stackName": "aws-terraformcdk-two-tier-web-app"
    }
  },
  "terraform": {
    "required_providers": {
      "aws": {
        "version": "~> 2.0",
        "source": "aws"
      }
    }
  },
  "provider": {
    "aws": [
      {
        "region": "eu-west-1"
      }
    ]
  },
  "resource": {
    "aws_vpc": {
      "awsterraformcdktwotierwebapp_CustomVpc_042197E5": {
        "cidr_block": "10.0.0.0/16",
        "tags": {
          "Name": "CustomVPC"
        },
        "provider": "aws",
        "//": {
          "metadata": {
            "path": "aws-terraformcdk-two-tier-web-app/CustomVpc",
            "uniqueId": "awsterraformcdktwotierwebapp_CustomVpc_042197E5",
            "stackTrace": [
              "new TerraformElement (/private/var/folders/kq/f8xdpp8j2xl9y3d57fpjpxwh_xs3np/T/jsii-kernel-GEQkA9/node_modules/cdktf/lib/terraform-element.js:11:28)",
              "new TerraformResource (/private/var/folders/kq/f8xdpp8j2xl9y3d57fpjpxwh_xs3np/T/jsii-kernel-GEQkA9/node_modules/cdktf/lib/terraform-resource.js:9:9)",
              "new Vpc (/private/var/folders/kq/f8xdpp8j2xl9y3d57fpjpxwh_xs3np/T/jsii-kernel-GEQkA9/node_modules/aws/providers/aws/vpc.js:13:9)",
              "/Users/jcastans/.local/share/virtualenvs/aws-terraformcdk-two-tier-web-app-wYKQVe1a/lib/python3.8/site-packages/jsii/_embedded/jsii/jsii-runtime.js:7934:49",
              "Kernel._wrapSandboxCode (/Users/jcastans/.local/share/virtualenvs/aws-terraformcdk-two-tier-web-app-wYKQVe1a/lib/python3.8/site-packages/jsii/_embedded/jsii/jsii-runtime.js:8419:20)",
              "Kernel._create (/Users/jcastans/.local/share/virtualenvs/aws-terraformcdk-two-tier-web-app-wYKQVe1a/lib/python3.8/site-packages/jsii/_embedded/jsii/jsii-runtime.js:7934:26)",
              "Kernel.create (/Users/jcastans/.local/share/virtualenvs/aws-terraformcdk-two-tier-web-app-wYKQVe1a/lib/python3.8/site-packages/jsii/_embedded/jsii/jsii-runtime.js:7678:21)",
              "KernelHost.processRequest (/Users/jcastans/.local/share/virtualenvs/aws-terraformcdk-two-tier-web-app-wYKQVe1a/lib/python3.8/site-packages/jsii/_embedded/jsii/jsii-runtime.js:7458:28)",
              "KernelHost.run (/Users/jcastans/.local/share/virtualenvs/aws-terraformcdk-two-tier-web-app-wYKQVe1a/lib/python3.8/site-packages/jsii/_embedded/jsii/jsii-runtime.js:7396:14)",
              "Immediate._onImmediate (/Users/jcastans/.local/share/virtualenvs/aws-terraformcdk-two-tier-web-app-wYKQVe1a/lib/python3.8/site-packages/jsii/_embedded/jsii/jsii-runtime.js:7399:37)",
              "processImmediate (internal/timers.js:456:21)"
            ]
          }
        }
      }
    },
    "aws_subnet": {
      "awsterraformcdktwotierwebapp_PublicSubnet1_F16DEDFC": {
        "availability_zone": "eu-west-1a",
        "cidr_block": "10.0.1.0/24",
        "vpc_id": "${aws_vpc.awsterraformcdktwotierwebapp_CustomVpc_042197E5.id}",
        "//": {
          "metadata": {
            "path": "aws-terraformcdk-two-tier-web-app/PublicSubnet1",
            "uniqueId": "awsterraformcdktwotierwebapp_PublicSubnet1_F16DEDFC",
            "stackTrace": [
              "new TerraformElement (/private/var/folders/kq/f8xdpp8j2xl9y3d57fpjpxwh_xs3np/T/jsii-kernel-GEQkA9/node_modules/cdktf/lib/terraform-element.js:11:28)",
              "new TerraformResource (/private/var/folders/kq/f8xdpp8j2xl9y3d57fpjpxwh_xs3np/T/jsii-kernel-GEQkA9/node_modules/cdktf/lib/terraform-resource.js:9:9)",
              "new Subnet (/private/var/folders/kq/f8xdpp8j2xl9y3d57fpjpxwh_xs3np/T/jsii-kernel-GEQkA9/node_modules/aws/providers/aws/subnet.js:13:9)",
              "/Users/jcastans/.local/share/virtualenvs/aws-terraformcdk-two-tier-web-app-wYKQVe1a/lib/python3.8/site-packages/jsii/_embedded/jsii/jsii-runtime.js:7934:49",
              "Kernel._wrapSandboxCode (/Users/jcastans/.local/share/virtualenvs/aws-terraformcdk-two-tier-web-app-wYKQVe1a/lib/python3.8/site-packages/jsii/_embedded/jsii/jsii-runtime.js:8419:20)",
              "Kernel._create (/Users/jcastans/.local/share/virtualenvs/aws-terraformcdk-two-tier-web-app-wYKQVe1a/lib/python3.8/site-packages/jsii/_embedded/jsii/jsii-runtime.js:7934:26)",
              "Kernel.create (/Users/jcastans/.local/share/virtualenvs/aws-terraformcdk-two-tier-web-app-wYKQVe1a/lib/python3.8/site-packages/jsii/_embedded/jsii/jsii-runtime.js:7678:21)",
              "KernelHost.processRequest (/Users/jcastans/.local/share/virtualenvs/aws-terraformcdk-two-tier-web-app-wYKQVe1a/lib/python3.8/site-packages/jsii/_embedded/jsii/jsii-runtime.js:7458:28)",
              "KernelHost.run (/Users/jcastans/.local/share/virtualenvs/aws-terraformcdk-two-tier-web-app-wYKQVe1a/lib/python3.8/site-packages/jsii/_embedded/jsii/jsii-runtime.js:7396:14)",
              "Immediate._onImmediate (/Users/jcastans/.local/share/virtualenvs/aws-terraformcdk-two-tier-web-app-wYKQVe1a/lib/python3.8/site-packages/jsii/_embedded/jsii/jsii-runtime.js:7399:37)",
              "processImmediate (internal/timers.js:456:21)"
            ]
          }
        }
      },
      "awsterraformcdktwotierwebapp_PublicSubnet2_13945CEF": {
        "availability_zone": "eu-west-1b",
        "cidr_block": "10.0.2.0/24",
        "vpc_id": "${aws_vpc.awsterraformcdktwotierwebapp_CustomVpc_042197E5.id}",
        "//": {
          "metadata": {
            "path": "aws-terraformcdk-two-tier-web-app/PublicSubnet2",
            "uniqueId": "awsterraformcdktwotierwebapp_PublicSubnet2_13945CEF",
            "stackTrace": [
              "new TerraformElement (/private/var/folders/kq/f8xdpp8j2xl9y3d57fpjpxwh_xs3np/T/jsii-kernel-GEQkA9/node_modules/cdktf/lib/terraform-element.js:11:28)",
              "new TerraformResource (/private/var/folders/kq/f8xdpp8j2xl9y3d57fpjpxwh_xs3np/T/jsii-kernel-GEQkA9/node_modules/cdktf/lib/terraform-resource.js:9:9)",
              "new Subnet (/private/var/folders/kq/f8xdpp8j2xl9y3d57fpjpxwh_xs3np/T/jsii-kernel-GEQkA9/node_modules/aws/providers/aws/subnet.js:13:9)",
              "/Users/jcastans/.local/share/virtualenvs/aws-terraformcdk-two-tier-web-app-wYKQVe1a/lib/python3.8/site-packages/jsii/_embedded/jsii/jsii-runtime.js:7934:49",
              "Kernel._wrapSandboxCode (/Users/jcastans/.local/share/virtualenvs/aws-terraformcdk-two-tier-web-app-wYKQVe1a/lib/python3.8/site-packages/jsii/_embedded/jsii/jsii-runtime.js:8419:20)",
              "Kernel._create (/Users/jcastans/.local/share/virtualenvs/aws-terraformcdk-two-tier-web-app-wYKQVe1a/lib/python3.8/site-packages/jsii/_embedded/jsii/jsii-runtime.js:7934:26)",
              "Kernel.create (/Users/jcastans/.local/share/virtualenvs/aws-terraformcdk-two-tier-web-app-wYKQVe1a/lib/python3.8/site-packages/jsii/_embedded/jsii/jsii-runtime.js:7678:21)",
              "KernelHost.processRequest (/Users/jcastans/.local/share/virtualenvs/aws-terraformcdk-two-tier-web-app-wYKQVe1a/lib/python3.8/site-packages/jsii/_embedded/jsii/jsii-runtime.js:7458:28)",
              "KernelHost.run (/Users/jcastans/.local/share/virtualenvs/aws-terraformcdk-two-tier-web-app-wYKQVe1a/lib/python3.8/site-packages/jsii/_embedded/jsii/jsii-runtime.js:7396:14)",
              "Immediate._onImmediate (/Users/jcastans/.local/share/virtualenvs/aws-terraformcdk-two-tier-web-app-wYKQVe1a/lib/python3.8/site-packages/jsii/_embedded/jsii/jsii-runtime.js:7399:37)",
              "processImmediate (internal/timers.js:456:21)"
            ]
          }
        }
      },
      "awsterraformcdktwotierwebapp_PrivateSubnet1_81A29D82": {
        "availability_zone": "eu-west-1a",
        "cidr_block": "10.0.3.0/24",
        "vpc_id": "${aws_vpc.awsterraformcdktwotierwebapp_CustomVpc_042197E5.id}",
        "//": {
          "metadata": {
            "path": "aws-terraformcdk-two-tier-web-app/PrivateSubnet1",
            "uniqueId": "awsterraformcdktwotierwebapp_PrivateSubnet1_81A29D82",
            "stackTrace": [
              "new TerraformElement (/private/var/folders/kq/f8xdpp8j2xl9y3d57fpjpxwh_xs3np/T/jsii-kernel-GEQkA9/node_modules/cdktf/lib/terraform-element.js:11:28)",
              "new TerraformResource (/private/var/folders/kq/f8xdpp8j2xl9y3d57fpjpxwh_xs3np/T/jsii-kernel-GEQkA9/node_modules/cdktf/lib/terraform-resource.js:9:9)",
              "new Subnet (/private/var/folders/kq/f8xdpp8j2xl9y3d57fpjpxwh_xs3np/T/jsii-kernel-GEQkA9/node_modules/aws/providers/aws/subnet.js:13:9)",
              "/Users/jcastans/.local/share/virtualenvs/aws-terraformcdk-two-tier-web-app-wYKQVe1a/lib/python3.8/site-packages/jsii/_embedded/jsii/jsii-runtime.js:7934:49",
              "Kernel._wrapSandboxCode (/Users/jcastans/.local/share/virtualenvs/aws-terraformcdk-two-tier-web-app-wYKQVe1a/lib/python3.8/site-packages/jsii/_embedded/jsii/jsii-runtime.js:8419:20)",
              "Kernel._create (/Users/jcastans/.local/share/virtualenvs/aws-terraformcdk-two-tier-web-app-wYKQVe1a/lib/python3.8/site-packages/jsii/_embedded/jsii/jsii-runtime.js:7934:26)",
              "Kernel.create (/Users/jcastans/.local/share/virtualenvs/aws-terraformcdk-two-tier-web-app-wYKQVe1a/lib/python3.8/site-packages/jsii/_embedded/jsii/jsii-runtime.js:7678:21)",
              "KernelHost.processRequest (/Users/jcastans/.local/share/virtualenvs/aws-terraformcdk-two-tier-web-app-wYKQVe1a/lib/python3.8/site-packages/jsii/_embedded/jsii/jsii-runtime.js:7458:28)",
              "KernelHost.run (/Users/jcastans/.local/share/virtualenvs/aws-terraformcdk-two-tier-web-app-wYKQVe1a/lib/python3.8/site-packages/jsii/_embedded/jsii/jsii-runtime.js:7396:14)",
              "Immediate._onImmediate (/Users/jcastans/.local/share/virtualenvs/aws-terraformcdk-two-tier-web-app-wYKQVe1a/lib/python3.8/site-packages/jsii/_embedded/jsii/jsii-runtime.js:7399:37)",
              "processImmediate (internal/timers.js:456:21)"
            ]
          }
        }
      },
      "awsterraformcdktwotierwebapp_PrivateSubnet2_3CE54E15": {
        "availability_zone": "eu-west-1b",
        "cidr_block": "10.0.4.0/24",
        "vpc_id": "${aws_vpc.awsterraformcdktwotierwebapp_CustomVpc_042197E5.id}",
        "//": {
          "metadata": {
            "path": "aws-terraformcdk-two-tier-web-app/PrivateSubnet2",
            "uniqueId": "awsterraformcdktwotierwebapp_PrivateSubnet2_3CE54E15",
            "stackTrace": [
              "new TerraformElement (/private/var/folders/kq/f8xdpp8j2xl9y3d57fpjpxwh_xs3np/T/jsii-kernel-GEQkA9/node_modules/cdktf/lib/terraform-element.js:11:28)",
              "new TerraformResource (/private/var/folders/kq/f8xdpp8j2xl9y3d57fpjpxwh_xs3np/T/jsii-kernel-GEQkA9/node_modules/cdktf/lib/terraform-resource.js:9:9)",
              "new Subnet (/private/var/folders/kq/f8xdpp8j2xl9y3d57fpjpxwh_xs3np/T/jsii-kernel-GEQkA9/node_modules/aws/providers/aws/subnet.js:13:9)",
              "/Users/jcastans/.local/share/virtualenvs/aws-terraformcdk-two-tier-web-app-wYKQVe1a/lib/python3.8/site-packages/jsii/_embedded/jsii/jsii-runtime.js:7934:49",
              "Kernel._wrapSandboxCode (/Users/jcastans/.local/share/virtualenvs/aws-terraformcdk-two-tier-web-app-wYKQVe1a/lib/python3.8/site-packages/jsii/_embedded/jsii/jsii-runtime.js:8419:20)",
              "Kernel._create (/Users/jcastans/.local/share/virtualenvs/aws-terraformcdk-two-tier-web-app-wYKQVe1a/lib/python3.8/site-packages/jsii/_embedded/jsii/jsii-runtime.js:7934:26)",
              "Kernel.create (/Users/jcastans/.local/share/virtualenvs/aws-terraformcdk-two-tier-web-app-wYKQVe1a/lib/python3.8/site-packages/jsii/_embedded/jsii/jsii-runtime.js:7678:21)",
              "KernelHost.processRequest (/Users/jcastans/.local/share/virtualenvs/aws-terraformcdk-two-tier-web-app-wYKQVe1a/lib/python3.8/site-packages/jsii/_embedded/jsii/jsii-runtime.js:7458:28)",
              "KernelHost.run (/Users/jcastans/.local/share/virtualenvs/aws-terraformcdk-two-tier-web-app-wYKQVe1a/lib/python3.8/site-packages/jsii/_embedded/jsii/jsii-runtime.js:7396:14)",
              "Immediate._onImmediate (/Users/jcastans/.local/share/virtualenvs/aws-terraformcdk-two-tier-web-app-wYKQVe1a/lib/python3.8/site-packages/jsii/_embedded/jsii/jsii-runtime.js:7399:37)",
              "processImmediate (internal/timers.js:456:21)"
            ]
          }
        }
      }
    },
    "aws_internet_gateway": {
      "awsterraformcdktwotierwebapp_internetgateway_23D14601": {
        "vpc_id": "${aws_vpc.awsterraformcdktwotierwebapp_CustomVpc_042197E5.id}",
        "//": {
          "metadata": {
            "path": "aws-terraformcdk-two-tier-web-app/internet-gateway",
            "uniqueId": "awsterraformcdktwotierwebapp_internetgateway_23D14601",
            "stackTrace": [
              "new TerraformElement (/private/var/folders/kq/f8xdpp8j2xl9y3d57fpjpxwh_xs3np/T/jsii-kernel-GEQkA9/node_modules/cdktf/lib/terraform-element.js:11:28)",
              "new TerraformResource (/private/var/folders/kq/f8xdpp8j2xl9y3d57fpjpxwh_xs3np/T/jsii-kernel-GEQkA9/node_modules/cdktf/lib/terraform-resource.js:9:9)",
              "new InternetGateway (/private/var/folders/kq/f8xdpp8j2xl9y3d57fpjpxwh_xs3np/T/jsii-kernel-GEQkA9/node_modules/aws/providers/aws/internet-gateway.js:13:9)",
              "/Users/jcastans/.local/share/virtualenvs/aws-terraformcdk-two-tier-web-app-wYKQVe1a/lib/python3.8/site-packages/jsii/_embedded/jsii/jsii-runtime.js:7934:49",
              "Kernel._wrapSandboxCode (/Users/jcastans/.local/share/virtualenvs/aws-terraformcdk-two-tier-web-app-wYKQVe1a/lib/python3.8/site-packages/jsii/_embedded/jsii/jsii-runtime.js:8419:20)",
              "Kernel._create (/Users/jcastans/.local/share/virtualenvs/aws-terraformcdk-two-tier-web-app-wYKQVe1a/lib/python3.8/site-packages/jsii/_embedded/jsii/jsii-runtime.js:7934:26)",
              "Kernel.create (/Users/jcastans/.local/share/virtualenvs/aws-terraformcdk-two-tier-web-app-wYKQVe1a/lib/python3.8/site-packages/jsii/_embedded/jsii/jsii-runtime.js:7678:21)",
              "KernelHost.processRequest (/Users/jcastans/.local/share/virtualenvs/aws-terraformcdk-two-tier-web-app-wYKQVe1a/lib/python3.8/site-packages/jsii/_embedded/jsii/jsii-runtime.js:7458:28)",
              "KernelHost.run (/Users/jcastans/.local/share/virtualenvs/aws-terraformcdk-two-tier-web-app-wYKQVe1a/lib/python3.8/site-packages/jsii/_embedded/jsii/jsii-runtime.js:7396:14)",
              "Immediate._onImmediate (/Users/jcastans/.local/share/virtualenvs/aws-terraformcdk-two-tier-web-app-wYKQVe1a/lib/python3.8/site-packages/jsii/_embedded/jsii/jsii-runtime.js:7399:37)",
              "processImmediate (internal/timers.js:456:21)"
            ]
          }
        }
      }
    },
    "aws_route_table": {
      "awsterraformcdktwotierwebapp_publicroutetable_465C3CCB": {
        "route": [
          {
            "cidr_block": "0.0.0.0/0",
            "egress_only_gateway_id": "",
            "gateway_id": "${aws_internet_gateway.awsterraformcdktwotierwebapp_internetgateway_23D14601.id}",
            "instance_id": "",
            "ipv6_cidr_block": "",
            "nat_gateway_id": "",
            "network_interface_id": "",
            "transit_gateway_id": "",
            "vpc_peering_connection_id": ""
          }
        ],
        "vpc_id": "${aws_vpc.awsterraformcdktwotierwebapp_CustomVpc_042197E5.id}",
        "//": {
          "metadata": {
            "path": "aws-terraformcdk-two-tier-web-app/public-route-table",
            "uniqueId": "awsterraformcdktwotierwebapp_publicroutetable_465C3CCB",
            "stackTrace": [
              "new TerraformElement (/private/var/folders/kq/f8xdpp8j2xl9y3d57fpjpxwh_xs3np/T/jsii-kernel-GEQkA9/node_modules/cdktf/lib/terraform-element.js:11:28)",
              "new TerraformResource (/private/var/folders/kq/f8xdpp8j2xl9y3d57fpjpxwh_xs3np/T/jsii-kernel-GEQkA9/node_modules/cdktf/lib/terraform-resource.js:9:9)",
              "new RouteTable (/private/var/folders/kq/f8xdpp8j2xl9y3d57fpjpxwh_xs3np/T/jsii-kernel-GEQkA9/node_modules/aws/providers/aws/route-table.js:13:9)",
              "/Users/jcastans/.local/share/virtualenvs/aws-terraformcdk-two-tier-web-app-wYKQVe1a/lib/python3.8/site-packages/jsii/_embedded/jsii/jsii-runtime.js:7934:49",
              "Kernel._wrapSandboxCode (/Users/jcastans/.local/share/virtualenvs/aws-terraformcdk-two-tier-web-app-wYKQVe1a/lib/python3.8/site-packages/jsii/_embedded/jsii/jsii-runtime.js:8419:20)",
              "Kernel._create (/Users/jcastans/.local/share/virtualenvs/aws-terraformcdk-two-tier-web-app-wYKQVe1a/lib/python3.8/site-packages/jsii/_embedded/jsii/jsii-runtime.js:7934:26)",
              "Kernel.create (/Users/jcastans/.local/share/virtualenvs/aws-terraformcdk-two-tier-web-app-wYKQVe1a/lib/python3.8/site-packages/jsii/_embedded/jsii/jsii-runtime.js:7678:21)",
              "KernelHost.processRequest (/Users/jcastans/.local/share/virtualenvs/aws-terraformcdk-two-tier-web-app-wYKQVe1a/lib/python3.8/site-packages/jsii/_embedded/jsii/jsii-runtime.js:7458:28)",
              "KernelHost.run (/Users/jcastans/.local/share/virtualenvs/aws-terraformcdk-two-tier-web-app-wYKQVe1a/lib/python3.8/site-packages/jsii/_embedded/jsii/jsii-runtime.js:7396:14)",
              "Immediate._onImmediate (/Users/jcastans/.local/share/virtualenvs/aws-terraformcdk-two-tier-web-app-wYKQVe1a/lib/python3.8/site-packages/jsii/_embedded/jsii/jsii-runtime.js:7399:37)",
              "processImmediate (internal/timers.js:456:21)"
            ]
          }
        }
      },
      "awsterraformcdktwotierwebapp_privateroutetable_BDB07F35": {
        "route": [
          {
            "cidr_block": "0.0.0.0/0",
            "egress_only_gateway_id": "",
            "gateway_id": "",
            "instance_id": "",
            "ipv6_cidr_block": "",
            "nat_gateway_id": "${aws_nat_gateway.awsterraformcdktwotierwebapp_Natgateway_DE0DDACA.id}",
            "network_interface_id": "",
            "transit_gateway_id": "",
            "vpc_peering_connection_id": ""
          }
        ],
        "vpc_id": "${aws_vpc.awsterraformcdktwotierwebapp_CustomVpc_042197E5.id}",
        "//": {
          "metadata": {
            "path": "aws-terraformcdk-two-tier-web-app/private-route-table",
            "uniqueId": "awsterraformcdktwotierwebapp_privateroutetable_BDB07F35",
            "stackTrace": [
              "new TerraformElement (/private/var/folders/kq/f8xdpp8j2xl9y3d57fpjpxwh_xs3np/T/jsii-kernel-GEQkA9/node_modules/cdktf/lib/terraform-element.js:11:28)",
              "new TerraformResource (/private/var/folders/kq/f8xdpp8j2xl9y3d57fpjpxwh_xs3np/T/jsii-kernel-GEQkA9/node_modules/cdktf/lib/terraform-resource.js:9:9)",
              "new RouteTable (/private/var/folders/kq/f8xdpp8j2xl9y3d57fpjpxwh_xs3np/T/jsii-kernel-GEQkA9/node_modules/aws/providers/aws/route-table.js:13:9)",
              "/Users/jcastans/.local/share/virtualenvs/aws-terraformcdk-two-tier-web-app-wYKQVe1a/lib/python3.8/site-packages/jsii/_embedded/jsii/jsii-runtime.js:7934:49",
              "Kernel._wrapSandboxCode (/Users/jcastans/.local/share/virtualenvs/aws-terraformcdk-two-tier-web-app-wYKQVe1a/lib/python3.8/site-packages/jsii/_embedded/jsii/jsii-runtime.js:8419:20)",
              "Kernel._create (/Users/jcastans/.local/share/virtualenvs/aws-terraformcdk-two-tier-web-app-wYKQVe1a/lib/python3.8/site-packages/jsii/_embedded/jsii/jsii-runtime.js:7934:26)",
              "Kernel.create (/Users/jcastans/.local/share/virtualenvs/aws-terraformcdk-two-tier-web-app-wYKQVe1a/lib/python3.8/site-packages/jsii/_embedded/jsii/jsii-runtime.js:7678:21)",
              "KernelHost.processRequest (/Users/jcastans/.local/share/virtualenvs/aws-terraformcdk-two-tier-web-app-wYKQVe1a/lib/python3.8/site-packages/jsii/_embedded/jsii/jsii-runtime.js:7458:28)",
              "KernelHost.run (/Users/jcastans/.local/share/virtualenvs/aws-terraformcdk-two-tier-web-app-wYKQVe1a/lib/python3.8/site-packages/jsii/_embedded/jsii/jsii-runtime.js:7396:14)",
              "Immediate._onImmediate (/Users/jcastans/.local/share/virtualenvs/aws-terraformcdk-two-tier-web-app-wYKQVe1a/lib/python3.8/site-packages/jsii/_embedded/jsii/jsii-runtime.js:7399:37)",
              "processImmediate (internal/timers.js:456:21)"
            ]
          }
        }
      }
    },
    "aws_route_table_association": {
      "awsterraformcdktwotierwebapp_associationpublicsubneta_94DEDC47": {
        "route_table_id": "${aws_route_table.awsterraformcdktwotierwebapp_publicroutetable_465C3CCB.id}",
        "subnet_id": "${aws_subnet.awsterraformcdktwotierwebapp_PublicSubnet1_F16DEDFC.id}",
        "//": {
          "metadata": {
            "path": "aws-terraformcdk-two-tier-web-app/association-public-subnet-a",
            "uniqueId": "awsterraformcdktwotierwebapp_associationpublicsubneta_94DEDC47",
            "stackTrace": [
              "new TerraformElement (/private/var/folders/kq/f8xdpp8j2xl9y3d57fpjpxwh_xs3np/T/jsii-kernel-GEQkA9/node_modules/cdktf/lib/terraform-element.js:11:28)",
              "new TerraformResource (/private/var/folders/kq/f8xdpp8j2xl9y3d57fpjpxwh_xs3np/T/jsii-kernel-GEQkA9/node_modules/cdktf/lib/terraform-resource.js:9:9)",
              "new RouteTableAssociation (/private/var/folders/kq/f8xdpp8j2xl9y3d57fpjpxwh_xs3np/T/jsii-kernel-GEQkA9/node_modules/aws/providers/aws/route-table-association.js:13:9)",
              "/Users/jcastans/.local/share/virtualenvs/aws-terraformcdk-two-tier-web-app-wYKQVe1a/lib/python3.8/site-packages/jsii/_embedded/jsii/jsii-runtime.js:7934:49",
              "Kernel._wrapSandboxCode (/Users/jcastans/.local/share/virtualenvs/aws-terraformcdk-two-tier-web-app-wYKQVe1a/lib/python3.8/site-packages/jsii/_embedded/jsii/jsii-runtime.js:8419:20)",
              "Kernel._create (/Users/jcastans/.local/share/virtualenvs/aws-terraformcdk-two-tier-web-app-wYKQVe1a/lib/python3.8/site-packages/jsii/_embedded/jsii/jsii-runtime.js:7934:26)",
              "Kernel.create (/Users/jcastans/.local/share/virtualenvs/aws-terraformcdk-two-tier-web-app-wYKQVe1a/lib/python3.8/site-packages/jsii/_embedded/jsii/jsii-runtime.js:7678:21)",
              "KernelHost.processRequest (/Users/jcastans/.local/share/virtualenvs/aws-terraformcdk-two-tier-web-app-wYKQVe1a/lib/python3.8/site-packages/jsii/_embedded/jsii/jsii-runtime.js:7458:28)",
              "KernelHost.run (/Users/jcastans/.local/share/virtualenvs/aws-terraformcdk-two-tier-web-app-wYKQVe1a/lib/python3.8/site-packages/jsii/_embedded/jsii/jsii-runtime.js:7396:14)",
              "Immediate._onImmediate (/Users/jcastans/.local/share/virtualenvs/aws-terraformcdk-two-tier-web-app-wYKQVe1a/lib/python3.8/site-packages/jsii/_embedded/jsii/jsii-runtime.js:7399:37)",
              "processImmediate (internal/timers.js:456:21)"
            ]
          }
        }
      },
      "awsterraformcdktwotierwebapp_associationpublicsubnetb_C193425B": {
        "route_table_id": "${aws_route_table.awsterraformcdktwotierwebapp_publicroutetable_465C3CCB.id}",
        "subnet_id": "${aws_subnet.awsterraformcdktwotierwebapp_PublicSubnet2_13945CEF.id}",
        "//": {
          "metadata": {
            "path": "aws-terraformcdk-two-tier-web-app/association-public-subnet-b",
            "uniqueId": "awsterraformcdktwotierwebapp_associationpublicsubnetb_C193425B",
            "stackTrace": [
              "new TerraformElement (/private/var/folders/kq/f8xdpp8j2xl9y3d57fpjpxwh_xs3np/T/jsii-kernel-GEQkA9/node_modules/cdktf/lib/terraform-element.js:11:28)",
              "new TerraformResource (/private/var/folders/kq/f8xdpp8j2xl9y3d57fpjpxwh_xs3np/T/jsii-kernel-GEQkA9/node_modules/cdktf/lib/terraform-resource.js:9:9)",
              "new RouteTableAssociation (/private/var/folders/kq/f8xdpp8j2xl9y3d57fpjpxwh_xs3np/T/jsii-kernel-GEQkA9/node_modules/aws/providers/aws/route-table-association.js:13:9)",
              "/Users/jcastans/.local/share/virtualenvs/aws-terraformcdk-two-tier-web-app-wYKQVe1a/lib/python3.8/site-packages/jsii/_embedded/jsii/jsii-runtime.js:7934:49",
              "Kernel._wrapSandboxCode (/Users/jcastans/.local/share/virtualenvs/aws-terraformcdk-two-tier-web-app-wYKQVe1a/lib/python3.8/site-packages/jsii/_embedded/jsii/jsii-runtime.js:8419:20)",
              "Kernel._create (/Users/jcastans/.local/share/virtualenvs/aws-terraformcdk-two-tier-web-app-wYKQVe1a/lib/python3.8/site-packages/jsii/_embedded/jsii/jsii-runtime.js:7934:26)",
              "Kernel.create (/Users/jcastans/.local/share/virtualenvs/aws-terraformcdk-two-tier-web-app-wYKQVe1a/lib/python3.8/site-packages/jsii/_embedded/jsii/jsii-runtime.js:7678:21)",
              "KernelHost.processRequest (/Users/jcastans/.local/share/virtualenvs/aws-terraformcdk-two-tier-web-app-wYKQVe1a/lib/python3.8/site-packages/jsii/_embedded/jsii/jsii-runtime.js:7458:28)",
              "KernelHost.run (/Users/jcastans/.local/share/virtualenvs/aws-terraformcdk-two-tier-web-app-wYKQVe1a/lib/python3.8/site-packages/jsii/_embedded/jsii/jsii-runtime.js:7396:14)",
              "Immediate._onImmediate (/Users/jcastans/.local/share/virtualenvs/aws-terraformcdk-two-tier-web-app-wYKQVe1a/lib/python3.8/site-packages/jsii/_embedded/jsii/jsii-runtime.js:7399:37)",
              "processImmediate (internal/timers.js:456:21)"
            ]
          }
        }
      },
      "awsterraformcdktwotierwebapp_associationprivatesubneta_05D70667": {
        "route_table_id": "${aws_route_table.awsterraformcdktwotierwebapp_privateroutetable_BDB07F35.id}",
        "subnet_id": "${aws_subnet.awsterraformcdktwotierwebapp_PrivateSubnet1_81A29D82.id}",
        "//": {
          "metadata": {
            "path": "aws-terraformcdk-two-tier-web-app/association-private-subnet-a",
            "uniqueId": "awsterraformcdktwotierwebapp_associationprivatesubneta_05D70667",
            "stackTrace": [
              "new TerraformElement (/private/var/folders/kq/f8xdpp8j2xl9y3d57fpjpxwh_xs3np/T/jsii-kernel-GEQkA9/node_modules/cdktf/lib/terraform-element.js:11:28)",
              "new TerraformResource (/private/var/folders/kq/f8xdpp8j2xl9y3d57fpjpxwh_xs3np/T/jsii-kernel-GEQkA9/node_modules/cdktf/lib/terraform-resource.js:9:9)",
              "new RouteTableAssociation (/private/var/folders/kq/f8xdpp8j2xl9y3d57fpjpxwh_xs3np/T/jsii-kernel-GEQkA9/node_modules/aws/providers/aws/route-table-association.js:13:9)",
              "/Users/jcastans/.local/share/virtualenvs/aws-terraformcdk-two-tier-web-app-wYKQVe1a/lib/python3.8/site-packages/jsii/_embedded/jsii/jsii-runtime.js:7934:49",
              "Kernel._wrapSandboxCode (/Users/jcastans/.local/share/virtualenvs/aws-terraformcdk-two-tier-web-app-wYKQVe1a/lib/python3.8/site-packages/jsii/_embedded/jsii/jsii-runtime.js:8419:20)",
              "Kernel._create (/Users/jcastans/.local/share/virtualenvs/aws-terraformcdk-two-tier-web-app-wYKQVe1a/lib/python3.8/site-packages/jsii/_embedded/jsii/jsii-runtime.js:7934:26)",
              "Kernel.create (/Users/jcastans/.local/share/virtualenvs/aws-terraformcdk-two-tier-web-app-wYKQVe1a/lib/python3.8/site-packages/jsii/_embedded/jsii/jsii-runtime.js:7678:21)",
              "KernelHost.processRequest (/Users/jcastans/.local/share/virtualenvs/aws-terraformcdk-two-tier-web-app-wYKQVe1a/lib/python3.8/site-packages/jsii/_embedded/jsii/jsii-runtime.js:7458:28)",
              "KernelHost.run (/Users/jcastans/.local/share/virtualenvs/aws-terraformcdk-two-tier-web-app-wYKQVe1a/lib/python3.8/site-packages/jsii/_embedded/jsii/jsii-runtime.js:7396:14)",
              "Immediate._onImmediate (/Users/jcastans/.local/share/virtualenvs/aws-terraformcdk-two-tier-web-app-wYKQVe1a/lib/python3.8/site-packages/jsii/_embedded/jsii/jsii-runtime.js:7399:37)",
              "processImmediate (internal/timers.js:456:21)"
            ]
          }
        }
      },
      "awsterraformcdktwotierwebapp_associationprivatesubnetb_6C815F79": {
        "route_table_id": "${aws_route_table.awsterraformcdktwotierwebapp_privateroutetable_BDB07F35.id}",
        "subnet_id": "${aws_subnet.awsterraformcdktwotierwebapp_PrivateSubnet2_3CE54E15.id}",
        "//": {
          "metadata": {
            "path": "aws-terraformcdk-two-tier-web-app/association-private-subnet-b",
            "uniqueId": "awsterraformcdktwotierwebapp_associationprivatesubnetb_6C815F79",
            "stackTrace": [
              "new TerraformElement (/private/var/folders/kq/f8xdpp8j2xl9y3d57fpjpxwh_xs3np/T/jsii-kernel-GEQkA9/node_modules/cdktf/lib/terraform-element.js:11:28)",
              "new TerraformResource (/private/var/folders/kq/f8xdpp8j2xl9y3d57fpjpxwh_xs3np/T/jsii-kernel-GEQkA9/node_modules/cdktf/lib/terraform-resource.js:9:9)",
              "new RouteTableAssociation (/private/var/folders/kq/f8xdpp8j2xl9y3d57fpjpxwh_xs3np/T/jsii-kernel-GEQkA9/node_modules/aws/providers/aws/route-table-association.js:13:9)",
              "/Users/jcastans/.local/share/virtualenvs/aws-terraformcdk-two-tier-web-app-wYKQVe1a/lib/python3.8/site-packages/jsii/_embedded/jsii/jsii-runtime.js:7934:49",
              "Kernel._wrapSandboxCode (/Users/jcastans/.local/share/virtualenvs/aws-terraformcdk-two-tier-web-app-wYKQVe1a/lib/python3.8/site-packages/jsii/_embedded/jsii/jsii-runtime.js:8419:20)",
              "Kernel._create (/Users/jcastans/.local/share/virtualenvs/aws-terraformcdk-two-tier-web-app-wYKQVe1a/lib/python3.8/site-packages/jsii/_embedded/jsii/jsii-runtime.js:7934:26)",
              "Kernel.create (/Users/jcastans/.local/share/virtualenvs/aws-terraformcdk-two-tier-web-app-wYKQVe1a/lib/python3.8/site-packages/jsii/_embedded/jsii/jsii-runtime.js:7678:21)",
              "KernelHost.processRequest (/Users/jcastans/.local/share/virtualenvs/aws-terraformcdk-two-tier-web-app-wYKQVe1a/lib/python3.8/site-packages/jsii/_embedded/jsii/jsii-runtime.js:7458:28)",
              "KernelHost.run (/Users/jcastans/.local/share/virtualenvs/aws-terraformcdk-two-tier-web-app-wYKQVe1a/lib/python3.8/site-packages/jsii/_embedded/jsii/jsii-runtime.js:7396:14)",
              "Immediate._onImmediate (/Users/jcastans/.local/share/virtualenvs/aws-terraformcdk-two-tier-web-app-wYKQVe1a/lib/python3.8/site-packages/jsii/_embedded/jsii/jsii-runtime.js:7399:37)",
              "processImmediate (internal/timers.js:456:21)"
            ]
          }
        }
      }
    },
    "aws_eip": {
      "awsterraformcdktwotierwebapp_elasticip_B6A90CBF": {
        "//": {
          "metadata": {
            "path": "aws-terraformcdk-two-tier-web-app/elastic-ip",
            "uniqueId": "awsterraformcdktwotierwebapp_elasticip_B6A90CBF",
            "stackTrace": [
              "new TerraformElement (/private/var/folders/kq/f8xdpp8j2xl9y3d57fpjpxwh_xs3np/T/jsii-kernel-GEQkA9/node_modules/cdktf/lib/terraform-element.js:11:28)",
              "new TerraformResource (/private/var/folders/kq/f8xdpp8j2xl9y3d57fpjpxwh_xs3np/T/jsii-kernel-GEQkA9/node_modules/cdktf/lib/terraform-resource.js:9:9)",
              "new Eip (/private/var/folders/kq/f8xdpp8j2xl9y3d57fpjpxwh_xs3np/T/jsii-kernel-GEQkA9/node_modules/aws/providers/aws/eip.js:13:9)",
              "/Users/jcastans/.local/share/virtualenvs/aws-terraformcdk-two-tier-web-app-wYKQVe1a/lib/python3.8/site-packages/jsii/_embedded/jsii/jsii-runtime.js:7934:49",
              "Kernel._wrapSandboxCode (/Users/jcastans/.local/share/virtualenvs/aws-terraformcdk-two-tier-web-app-wYKQVe1a/lib/python3.8/site-packages/jsii/_embedded/jsii/jsii-runtime.js:8419:20)",
              "Kernel._create (/Users/jcastans/.local/share/virtualenvs/aws-terraformcdk-two-tier-web-app-wYKQVe1a/lib/python3.8/site-packages/jsii/_embedded/jsii/jsii-runtime.js:7934:26)",
              "Kernel.create (/Users/jcastans/.local/share/virtualenvs/aws-terraformcdk-two-tier-web-app-wYKQVe1a/lib/python3.8/site-packages/jsii/_embedded/jsii/jsii-runtime.js:7678:21)",
              "KernelHost.processRequest (/Users/jcastans/.local/share/virtualenvs/aws-terraformcdk-two-tier-web-app-wYKQVe1a/lib/python3.8/site-packages/jsii/_embedded/jsii/jsii-runtime.js:7458:28)",
              "KernelHost.run (/Users/jcastans/.local/share/virtualenvs/aws-terraformcdk-two-tier-web-app-wYKQVe1a/lib/python3.8/site-packages/jsii/_embedded/jsii/jsii-runtime.js:7396:14)",
              "Immediate._onImmediate (/Users/jcastans/.local/share/virtualenvs/aws-terraformcdk-two-tier-web-app-wYKQVe1a/lib/python3.8/site-packages/jsii/_embedded/jsii/jsii-runtime.js:7399:37)",
              "processImmediate (internal/timers.js:456:21)"
            ]
          }
        }
      }
    },
    "aws_nat_gateway": {
      "awsterraformcdktwotierwebapp_Natgateway_DE0DDACA": {
        "allocation_id": "${aws_eip.awsterraformcdktwotierwebapp_elasticip_B6A90CBF.id}",
        "subnet_id": "${aws_subnet.awsterraformcdktwotierwebapp_PublicSubnet1_F16DEDFC.id}",
        "//": {
          "metadata": {
            "path": "aws-terraformcdk-two-tier-web-app/Nat-gateway",
            "uniqueId": "awsterraformcdktwotierwebapp_Natgateway_DE0DDACA",
            "stackTrace": [
              "new TerraformElement (/private/var/folders/kq/f8xdpp8j2xl9y3d57fpjpxwh_xs3np/T/jsii-kernel-GEQkA9/node_modules/cdktf/lib/terraform-element.js:11:28)",
              "new TerraformResource (/private/var/folders/kq/f8xdpp8j2xl9y3d57fpjpxwh_xs3np/T/jsii-kernel-GEQkA9/node_modules/cdktf/lib/terraform-resource.js:9:9)",
              "new NatGateway (/private/var/folders/kq/f8xdpp8j2xl9y3d57fpjpxwh_xs3np/T/jsii-kernel-GEQkA9/node_modules/aws/providers/aws/nat-gateway.js:13:9)",
              "/Users/jcastans/.local/share/virtualenvs/aws-terraformcdk-two-tier-web-app-wYKQVe1a/lib/python3.8/site-packages/jsii/_embedded/jsii/jsii-runtime.js:7934:49",
              "Kernel._wrapSandboxCode (/Users/jcastans/.local/share/virtualenvs/aws-terraformcdk-two-tier-web-app-wYKQVe1a/lib/python3.8/site-packages/jsii/_embedded/jsii/jsii-runtime.js:8419:20)",
              "Kernel._create (/Users/jcastans/.local/share/virtualenvs/aws-terraformcdk-two-tier-web-app-wYKQVe1a/lib/python3.8/site-packages/jsii/_embedded/jsii/jsii-runtime.js:7934:26)",
              "Kernel.create (/Users/jcastans/.local/share/virtualenvs/aws-terraformcdk-two-tier-web-app-wYKQVe1a/lib/python3.8/site-packages/jsii/_embedded/jsii/jsii-runtime.js:7678:21)",
              "KernelHost.processRequest (/Users/jcastans/.local/share/virtualenvs/aws-terraformcdk-two-tier-web-app-wYKQVe1a/lib/python3.8/site-packages/jsii/_embedded/jsii/jsii-runtime.js:7458:28)",
              "KernelHost.run (/Users/jcastans/.local/share/virtualenvs/aws-terraformcdk-two-tier-web-app-wYKQVe1a/lib/python3.8/site-packages/jsii/_embedded/jsii/jsii-runtime.js:7396:14)",
              "Immediate._onImmediate (/Users/jcastans/.local/share/virtualenvs/aws-terraformcdk-two-tier-web-app-wYKQVe1a/lib/python3.8/site-packages/jsii/_embedded/jsii/jsii-runtime.js:7399:37)",
              "processImmediate (internal/timers.js:456:21)"
            ]
          }
        }
      }
    },
    "aws_security_group": {
      "awsterraformcdktwotierwebapp_sgloadbalancer_96E2C788": {
        "ingress": [
          {
            "cidr_blocks": [
              "0.0.0.0/0"
            ],
            "description": "HTTP for loadbalancer",
            "from_port": 80,
            "ipv6_cidr_blocks": [],
            "prefix_list_ids": [],
            "protocol": "tcp",
            "security_groups": [],
            "self": false,
            "to_port": 80
          }
        ],
        "name": "sg_load_balancer",
        "vpc_id": "${aws_vpc.awsterraformcdktwotierwebapp_CustomVpc_042197E5.id}",
        "//": {
          "metadata": {
            "path": "aws-terraformcdk-two-tier-web-app/sg_load_balancer",
            "uniqueId": "awsterraformcdktwotierwebapp_sgloadbalancer_96E2C788",
            "stackTrace": [
              "new TerraformElement (/private/var/folders/kq/f8xdpp8j2xl9y3d57fpjpxwh_xs3np/T/jsii-kernel-GEQkA9/node_modules/cdktf/lib/terraform-element.js:11:28)",
              "new TerraformResource (/private/var/folders/kq/f8xdpp8j2xl9y3d57fpjpxwh_xs3np/T/jsii-kernel-GEQkA9/node_modules/cdktf/lib/terraform-resource.js:9:9)",
              "new SecurityGroup (/private/var/folders/kq/f8xdpp8j2xl9y3d57fpjpxwh_xs3np/T/jsii-kernel-GEQkA9/node_modules/aws/providers/aws/security-group.js:13:9)",
              "/Users/jcastans/.local/share/virtualenvs/aws-terraformcdk-two-tier-web-app-wYKQVe1a/lib/python3.8/site-packages/jsii/_embedded/jsii/jsii-runtime.js:7934:49",
              "Kernel._wrapSandboxCode (/Users/jcastans/.local/share/virtualenvs/aws-terraformcdk-two-tier-web-app-wYKQVe1a/lib/python3.8/site-packages/jsii/_embedded/jsii/jsii-runtime.js:8419:20)",
              "Kernel._create (/Users/jcastans/.local/share/virtualenvs/aws-terraformcdk-two-tier-web-app-wYKQVe1a/lib/python3.8/site-packages/jsii/_embedded/jsii/jsii-runtime.js:7934:26)",
              "Kernel.create (/Users/jcastans/.local/share/virtualenvs/aws-terraformcdk-two-tier-web-app-wYKQVe1a/lib/python3.8/site-packages/jsii/_embedded/jsii/jsii-runtime.js:7678:21)",
              "KernelHost.processRequest (/Users/jcastans/.local/share/virtualenvs/aws-terraformcdk-two-tier-web-app-wYKQVe1a/lib/python3.8/site-packages/jsii/_embedded/jsii/jsii-runtime.js:7458:28)",
              "KernelHost.run (/Users/jcastans/.local/share/virtualenvs/aws-terraformcdk-two-tier-web-app-wYKQVe1a/lib/python3.8/site-packages/jsii/_embedded/jsii/jsii-runtime.js:7396:14)",
              "Immediate._onImmediate (/Users/jcastans/.local/share/virtualenvs/aws-terraformcdk-two-tier-web-app-wYKQVe1a/lib/python3.8/site-packages/jsii/_embedded/jsii/jsii-runtime.js:7399:37)",
              "processImmediate (internal/timers.js:456:21)"
            ]
          }
        }
      },
      "awsterraformcdktwotierwebapp_sgwebserver_A45D9290": {
        "ingress": [
          {
            "cidr_blocks": [],
            "description": "Only trafic from loadbalancer",
            "from_port": 80,
            "ipv6_cidr_blocks": [],
            "prefix_list_ids": [],
            "protocol": "tcp",
            "security_groups": [
              "${aws_security_group.awsterraformcdktwotierwebapp_sgloadbalancer_96E2C788.id}"
            ],
            "self": false,
            "to_port": 80
          }
        ],
        "name": "sg_web_server",
        "vpc_id": "${aws_vpc.awsterraformcdktwotierwebapp_CustomVpc_042197E5.id}",
        "//": {
          "metadata": {
            "path": "aws-terraformcdk-two-tier-web-app/sg_web_server",
            "uniqueId": "awsterraformcdktwotierwebapp_sgwebserver_A45D9290",
            "stackTrace": [
              "new TerraformElement (/private/var/folders/kq/f8xdpp8j2xl9y3d57fpjpxwh_xs3np/T/jsii-kernel-GEQkA9/node_modules/cdktf/lib/terraform-element.js:11:28)",
              "new TerraformResource (/private/var/folders/kq/f8xdpp8j2xl9y3d57fpjpxwh_xs3np/T/jsii-kernel-GEQkA9/node_modules/cdktf/lib/terraform-resource.js:9:9)",
              "new SecurityGroup (/private/var/folders/kq/f8xdpp8j2xl9y3d57fpjpxwh_xs3np/T/jsii-kernel-GEQkA9/node_modules/aws/providers/aws/security-group.js:13:9)",
              "/Users/jcastans/.local/share/virtualenvs/aws-terraformcdk-two-tier-web-app-wYKQVe1a/lib/python3.8/site-packages/jsii/_embedded/jsii/jsii-runtime.js:7934:49",
              "Kernel._wrapSandboxCode (/Users/jcastans/.local/share/virtualenvs/aws-terraformcdk-two-tier-web-app-wYKQVe1a/lib/python3.8/site-packages/jsii/_embedded/jsii/jsii-runtime.js:8419:20)",
              "Kernel._create (/Users/jcastans/.local/share/virtualenvs/aws-terraformcdk-two-tier-web-app-wYKQVe1a/lib/python3.8/site-packages/jsii/_embedded/jsii/jsii-runtime.js:7934:26)",
              "Kernel.create (/Users/jcastans/.local/share/virtualenvs/aws-terraformcdk-two-tier-web-app-wYKQVe1a/lib/python3.8/site-packages/jsii/_embedded/jsii/jsii-runtime.js:7678:21)",
              "KernelHost.processRequest (/Users/jcastans/.local/share/virtualenvs/aws-terraformcdk-two-tier-web-app-wYKQVe1a/lib/python3.8/site-packages/jsii/_embedded/jsii/jsii-runtime.js:7458:28)",
              "KernelHost.run (/Users/jcastans/.local/share/virtualenvs/aws-terraformcdk-two-tier-web-app-wYKQVe1a/lib/python3.8/site-packages/jsii/_embedded/jsii/jsii-runtime.js:7396:14)",
              "Immediate._onImmediate (/Users/jcastans/.local/share/virtualenvs/aws-terraformcdk-two-tier-web-app-wYKQVe1a/lib/python3.8/site-packages/jsii/_embedded/jsii/jsii-runtime.js:7399:37)",
              "processImmediate (internal/timers.js:456:21)"
            ]
          }
        }
      }
    },
    "aws_iam_role": {
      "awsterraformcdktwotierwebapp_webserverrole_3D076266": {
        "assume_role_policy": "{\"Version\": \"2012-10-17\",\"Statement\": [{\"Effect\": \"Allow\",\"Principal\": {\"Service\": \"ec2.amazonaws.com\"},\"Action\": \"sts:AssumeRole\"}]}",
        "name": "web-server-role",
        "//": {
          "metadata": {
            "path": "aws-terraformcdk-two-tier-web-app/web-server-role",
            "uniqueId": "awsterraformcdktwotierwebapp_webserverrole_3D076266",
            "stackTrace": [
              "new TerraformElement (/private/var/folders/kq/f8xdpp8j2xl9y3d57fpjpxwh_xs3np/T/jsii-kernel-GEQkA9/node_modules/cdktf/lib/terraform-element.js:11:28)",
              "new TerraformResource (/private/var/folders/kq/f8xdpp8j2xl9y3d57fpjpxwh_xs3np/T/jsii-kernel-GEQkA9/node_modules/cdktf/lib/terraform-resource.js:9:9)",
              "new IamRole (/private/var/folders/kq/f8xdpp8j2xl9y3d57fpjpxwh_xs3np/T/jsii-kernel-GEQkA9/node_modules/aws/providers/aws/iam-role.js:13:9)",
              "/Users/jcastans/.local/share/virtualenvs/aws-terraformcdk-two-tier-web-app-wYKQVe1a/lib/python3.8/site-packages/jsii/_embedded/jsii/jsii-runtime.js:7934:49",
              "Kernel._wrapSandboxCode (/Users/jcastans/.local/share/virtualenvs/aws-terraformcdk-two-tier-web-app-wYKQVe1a/lib/python3.8/site-packages/jsii/_embedded/jsii/jsii-runtime.js:8419:20)",
              "Kernel._create (/Users/jcastans/.local/share/virtualenvs/aws-terraformcdk-two-tier-web-app-wYKQVe1a/lib/python3.8/site-packages/jsii/_embedded/jsii/jsii-runtime.js:7934:26)",
              "Kernel.create (/Users/jcastans/.local/share/virtualenvs/aws-terraformcdk-two-tier-web-app-wYKQVe1a/lib/python3.8/site-packages/jsii/_embedded/jsii/jsii-runtime.js:7678:21)",
              "KernelHost.processRequest (/Users/jcastans/.local/share/virtualenvs/aws-terraformcdk-two-tier-web-app-wYKQVe1a/lib/python3.8/site-packages/jsii/_embedded/jsii/jsii-runtime.js:7458:28)",
              "KernelHost.run (/Users/jcastans/.local/share/virtualenvs/aws-terraformcdk-two-tier-web-app-wYKQVe1a/lib/python3.8/site-packages/jsii/_embedded/jsii/jsii-runtime.js:7396:14)",
              "Immediate._onImmediate (/Users/jcastans/.local/share/virtualenvs/aws-terraformcdk-two-tier-web-app-wYKQVe1a/lib/python3.8/site-packages/jsii/_embedded/jsii/jsii-runtime.js:7399:37)",
              "processImmediate (internal/timers.js:456:21)"
            ]
          }
        }
      }
    },
    "aws_iam_role_policy_attachment": {
      "awsterraformcdktwotierwebapp_webserverpolicy_1BB623E7": {
        "policy_arn": "arn:aws:iam::aws:policy/AmazonS3ReadOnlyAccess",
        "role": "${aws_iam_role.awsterraformcdktwotierwebapp_webserverrole_3D076266.id}",
        "//": {
          "metadata": {
            "path": "aws-terraformcdk-two-tier-web-app/web-server-policy",
            "uniqueId": "awsterraformcdktwotierwebapp_webserverpolicy_1BB623E7",
            "stackTrace": [
              "new TerraformElement (/private/var/folders/kq/f8xdpp8j2xl9y3d57fpjpxwh_xs3np/T/jsii-kernel-GEQkA9/node_modules/cdktf/lib/terraform-element.js:11:28)",
              "new TerraformResource (/private/var/folders/kq/f8xdpp8j2xl9y3d57fpjpxwh_xs3np/T/jsii-kernel-GEQkA9/node_modules/cdktf/lib/terraform-resource.js:9:9)",
              "new IamRolePolicyAttachment (/private/var/folders/kq/f8xdpp8j2xl9y3d57fpjpxwh_xs3np/T/jsii-kernel-GEQkA9/node_modules/aws/providers/aws/iam-role-policy-attachment.js:13:9)",
              "/Users/jcastans/.local/share/virtualenvs/aws-terraformcdk-two-tier-web-app-wYKQVe1a/lib/python3.8/site-packages/jsii/_embedded/jsii/jsii-runtime.js:7934:49",
              "Kernel._wrapSandboxCode (/Users/jcastans/.local/share/virtualenvs/aws-terraformcdk-two-tier-web-app-wYKQVe1a/lib/python3.8/site-packages/jsii/_embedded/jsii/jsii-runtime.js:8419:20)",
              "Kernel._create (/Users/jcastans/.local/share/virtualenvs/aws-terraformcdk-two-tier-web-app-wYKQVe1a/lib/python3.8/site-packages/jsii/_embedded/jsii/jsii-runtime.js:7934:26)",
              "Kernel.create (/Users/jcastans/.local/share/virtualenvs/aws-terraformcdk-two-tier-web-app-wYKQVe1a/lib/python3.8/site-packages/jsii/_embedded/jsii/jsii-runtime.js:7678:21)",
              "KernelHost.processRequest (/Users/jcastans/.local/share/virtualenvs/aws-terraformcdk-two-tier-web-app-wYKQVe1a/lib/python3.8/site-packages/jsii/_embedded/jsii/jsii-runtime.js:7458:28)",
              "KernelHost.run (/Users/jcastans/.local/share/virtualenvs/aws-terraformcdk-two-tier-web-app-wYKQVe1a/lib/python3.8/site-packages/jsii/_embedded/jsii/jsii-runtime.js:7396:14)",
              "Immediate._onImmediate (/Users/jcastans/.local/share/virtualenvs/aws-terraformcdk-two-tier-web-app-wYKQVe1a/lib/python3.8/site-packages/jsii/_embedded/jsii/jsii-runtime.js:7399:37)",
              "processImmediate (internal/timers.js:456:21)"
            ]
          }
        }
      }
    },
    "aws_iam_instance_profile": {
      "awsterraformcdktwotierwebapp_webserverinstanceprofile_A1693AEC": {
        "role": "${aws_iam_role.awsterraformcdktwotierwebapp_webserverrole_3D076266.id}",
        "//": {
          "metadata": {
            "path": "aws-terraformcdk-two-tier-web-app/web-server-instance-profile",
            "uniqueId": "awsterraformcdktwotierwebapp_webserverinstanceprofile_A1693AEC",
            "stackTrace": [
              "new TerraformElement (/private/var/folders/kq/f8xdpp8j2xl9y3d57fpjpxwh_xs3np/T/jsii-kernel-GEQkA9/node_modules/cdktf/lib/terraform-element.js:11:28)",
              "new TerraformResource (/private/var/folders/kq/f8xdpp8j2xl9y3d57fpjpxwh_xs3np/T/jsii-kernel-GEQkA9/node_modules/cdktf/lib/terraform-resource.js:9:9)",
              "new IamInstanceProfile (/private/var/folders/kq/f8xdpp8j2xl9y3d57fpjpxwh_xs3np/T/jsii-kernel-GEQkA9/node_modules/aws/providers/aws/iam-instance-profile.js:13:9)",
              "/Users/jcastans/.local/share/virtualenvs/aws-terraformcdk-two-tier-web-app-wYKQVe1a/lib/python3.8/site-packages/jsii/_embedded/jsii/jsii-runtime.js:7934:49",
              "Kernel._wrapSandboxCode (/Users/jcastans/.local/share/virtualenvs/aws-terraformcdk-two-tier-web-app-wYKQVe1a/lib/python3.8/site-packages/jsii/_embedded/jsii/jsii-runtime.js:8419:20)",
              "Kernel._create (/Users/jcastans/.local/share/virtualenvs/aws-terraformcdk-two-tier-web-app-wYKQVe1a/lib/python3.8/site-packages/jsii/_embedded/jsii/jsii-runtime.js:7934:26)",
              "Kernel.create (/Users/jcastans/.local/share/virtualenvs/aws-terraformcdk-two-tier-web-app-wYKQVe1a/lib/python3.8/site-packages/jsii/_embedded/jsii/jsii-runtime.js:7678:21)",
              "KernelHost.processRequest (/Users/jcastans/.local/share/virtualenvs/aws-terraformcdk-two-tier-web-app-wYKQVe1a/lib/python3.8/site-packages/jsii/_embedded/jsii/jsii-runtime.js:7458:28)",
              "KernelHost.run (/Users/jcastans/.local/share/virtualenvs/aws-terraformcdk-two-tier-web-app-wYKQVe1a/lib/python3.8/site-packages/jsii/_embedded/jsii/jsii-runtime.js:7396:14)",
              "Immediate._onImmediate (/Users/jcastans/.local/share/virtualenvs/aws-terraformcdk-two-tier-web-app-wYKQVe1a/lib/python3.8/site-packages/jsii/_embedded/jsii/jsii-runtime.js:7399:37)",
              "processImmediate (internal/timers.js:456:21)"
            ]
          }
        }
      }
    },
    "aws_s3_bucket": {
      "awsterraformcdktwotierwebapp_s3logsbucket_A00567CA": {
        "bucket": "web-server-terraform-logs-jc",
        "region": "eu-west-1",
        "//": {
          "metadata": {
            "path": "aws-terraformcdk-two-tier-web-app/s3-logs-bucket",
            "uniqueId": "awsterraformcdktwotierwebapp_s3logsbucket_A00567CA",
            "stackTrace": [
              "new TerraformElement (/private/var/folders/kq/f8xdpp8j2xl9y3d57fpjpxwh_xs3np/T/jsii-kernel-GEQkA9/node_modules/cdktf/lib/terraform-element.js:11:28)",
              "new TerraformResource (/private/var/folders/kq/f8xdpp8j2xl9y3d57fpjpxwh_xs3np/T/jsii-kernel-GEQkA9/node_modules/cdktf/lib/terraform-resource.js:9:9)",
              "new S3Bucket (/private/var/folders/kq/f8xdpp8j2xl9y3d57fpjpxwh_xs3np/T/jsii-kernel-GEQkA9/node_modules/aws/providers/aws/s3-bucket.js:13:9)",
              "/Users/jcastans/.local/share/virtualenvs/aws-terraformcdk-two-tier-web-app-wYKQVe1a/lib/python3.8/site-packages/jsii/_embedded/jsii/jsii-runtime.js:7934:49",
              "Kernel._wrapSandboxCode (/Users/jcastans/.local/share/virtualenvs/aws-terraformcdk-two-tier-web-app-wYKQVe1a/lib/python3.8/site-packages/jsii/_embedded/jsii/jsii-runtime.js:8419:20)",
              "Kernel._create (/Users/jcastans/.local/share/virtualenvs/aws-terraformcdk-two-tier-web-app-wYKQVe1a/lib/python3.8/site-packages/jsii/_embedded/jsii/jsii-runtime.js:7934:26)",
              "Kernel.create (/Users/jcastans/.local/share/virtualenvs/aws-terraformcdk-two-tier-web-app-wYKQVe1a/lib/python3.8/site-packages/jsii/_embedded/jsii/jsii-runtime.js:7678:21)",
              "KernelHost.processRequest (/Users/jcastans/.local/share/virtualenvs/aws-terraformcdk-two-tier-web-app-wYKQVe1a/lib/python3.8/site-packages/jsii/_embedded/jsii/jsii-runtime.js:7458:28)",
              "KernelHost.run (/Users/jcastans/.local/share/virtualenvs/aws-terraformcdk-two-tier-web-app-wYKQVe1a/lib/python3.8/site-packages/jsii/_embedded/jsii/jsii-runtime.js:7396:14)",
              "Immediate._onImmediate (/Users/jcastans/.local/share/virtualenvs/aws-terraformcdk-two-tier-web-app-wYKQVe1a/lib/python3.8/site-packages/jsii/_embedded/jsii/jsii-runtime.js:7399:37)",
              "processImmediate (internal/timers.js:456:21)"
            ]
          }
        }
      }
    },
    "aws_lb_target_group": {
      "awsterraformcdktwotierwebapp_lbtargetgroup_3CBB1C60": {
        "name": "web-server-target-group",
        "health_check": [
          {
            "path": "/",
            "protocol": "HTTP"
          }
        ],
        "//": {
          "metadata": {
            "path": "aws-terraformcdk-two-tier-web-app/lb-target-group",
            "uniqueId": "awsterraformcdktwotierwebapp_lbtargetgroup_3CBB1C60",
            "stackTrace": [
              "new TerraformElement (/private/var/folders/kq/f8xdpp8j2xl9y3d57fpjpxwh_xs3np/T/jsii-kernel-GEQkA9/node_modules/cdktf/lib/terraform-element.js:11:28)",
              "new TerraformResource (/private/var/folders/kq/f8xdpp8j2xl9y3d57fpjpxwh_xs3np/T/jsii-kernel-GEQkA9/node_modules/cdktf/lib/terraform-resource.js:9:9)",
              "new LbTargetGroup (/private/var/folders/kq/f8xdpp8j2xl9y3d57fpjpxwh_xs3np/T/jsii-kernel-GEQkA9/node_modules/aws/providers/aws/lb-target-group.js:13:9)",
              "/Users/jcastans/.local/share/virtualenvs/aws-terraformcdk-two-tier-web-app-wYKQVe1a/lib/python3.8/site-packages/jsii/_embedded/jsii/jsii-runtime.js:7934:49",
              "Kernel._wrapSandboxCode (/Users/jcastans/.local/share/virtualenvs/aws-terraformcdk-two-tier-web-app-wYKQVe1a/lib/python3.8/site-packages/jsii/_embedded/jsii/jsii-runtime.js:8419:20)",
              "Kernel._create (/Users/jcastans/.local/share/virtualenvs/aws-terraformcdk-two-tier-web-app-wYKQVe1a/lib/python3.8/site-packages/jsii/_embedded/jsii/jsii-runtime.js:7934:26)",
              "Kernel.create (/Users/jcastans/.local/share/virtualenvs/aws-terraformcdk-two-tier-web-app-wYKQVe1a/lib/python3.8/site-packages/jsii/_embedded/jsii/jsii-runtime.js:7678:21)",
              "KernelHost.processRequest (/Users/jcastans/.local/share/virtualenvs/aws-terraformcdk-two-tier-web-app-wYKQVe1a/lib/python3.8/site-packages/jsii/_embedded/jsii/jsii-runtime.js:7458:28)",
              "KernelHost.run (/Users/jcastans/.local/share/virtualenvs/aws-terraformcdk-two-tier-web-app-wYKQVe1a/lib/python3.8/site-packages/jsii/_embedded/jsii/jsii-runtime.js:7396:14)",
              "Immediate._onImmediate (/Users/jcastans/.local/share/virtualenvs/aws-terraformcdk-two-tier-web-app-wYKQVe1a/lib/python3.8/site-packages/jsii/_embedded/jsii/jsii-runtime.js:7399:37)",
              "processImmediate (internal/timers.js:456:21)"
            ]
          }
        }
      }
    },
    "aws_lb": {
      "awsterraformcdktwotierwebapp_lbwebserver_43AF0541": {
        "load_balancer_type": "application",
        "name": "lb-web-server",
        "security_groups": [
          "${aws_security_group.awsterraformcdktwotierwebapp_sgloadbalancer_96E2C788.id}"
        ],
        "subnets": [
          "${aws_subnet.awsterraformcdktwotierwebapp_PublicSubnet1_F16DEDFC.id}",
          "${aws_subnet.awsterraformcdktwotierwebapp_PublicSubnet2_13945CEF.id}"
        ],
        "access_logs": [
          {
            "bucket": "web-server-terraform-logs-jc",
            "enabled": true,
            "prefix": "web-server-lb-logs"
          }
        ],
        "//": {
          "metadata": {
            "path": "aws-terraformcdk-two-tier-web-app/lb-web-server",
            "uniqueId": "awsterraformcdktwotierwebapp_lbwebserver_43AF0541",
            "stackTrace": [
              "new TerraformElement (/private/var/folders/kq/f8xdpp8j2xl9y3d57fpjpxwh_xs3np/T/jsii-kernel-GEQkA9/node_modules/cdktf/lib/terraform-element.js:11:28)",
              "new TerraformResource (/private/var/folders/kq/f8xdpp8j2xl9y3d57fpjpxwh_xs3np/T/jsii-kernel-GEQkA9/node_modules/cdktf/lib/terraform-resource.js:9:9)",
              "new Lb (/private/var/folders/kq/f8xdpp8j2xl9y3d57fpjpxwh_xs3np/T/jsii-kernel-GEQkA9/node_modules/aws/providers/aws/lb.js:13:9)",
              "/Users/jcastans/.local/share/virtualenvs/aws-terraformcdk-two-tier-web-app-wYKQVe1a/lib/python3.8/site-packages/jsii/_embedded/jsii/jsii-runtime.js:7934:49",
              "Kernel._wrapSandboxCode (/Users/jcastans/.local/share/virtualenvs/aws-terraformcdk-two-tier-web-app-wYKQVe1a/lib/python3.8/site-packages/jsii/_embedded/jsii/jsii-runtime.js:8419:20)",
              "Kernel._create (/Users/jcastans/.local/share/virtualenvs/aws-terraformcdk-two-tier-web-app-wYKQVe1a/lib/python3.8/site-packages/jsii/_embedded/jsii/jsii-runtime.js:7934:26)",
              "Kernel.create (/Users/jcastans/.local/share/virtualenvs/aws-terraformcdk-two-tier-web-app-wYKQVe1a/lib/python3.8/site-packages/jsii/_embedded/jsii/jsii-runtime.js:7678:21)",
              "KernelHost.processRequest (/Users/jcastans/.local/share/virtualenvs/aws-terraformcdk-two-tier-web-app-wYKQVe1a/lib/python3.8/site-packages/jsii/_embedded/jsii/jsii-runtime.js:7458:28)",
              "KernelHost.run (/Users/jcastans/.local/share/virtualenvs/aws-terraformcdk-two-tier-web-app-wYKQVe1a/lib/python3.8/site-packages/jsii/_embedded/jsii/jsii-runtime.js:7396:14)",
              "Immediate._onImmediate (/Users/jcastans/.local/share/virtualenvs/aws-terraformcdk-two-tier-web-app-wYKQVe1a/lib/python3.8/site-packages/jsii/_embedded/jsii/jsii-runtime.js:7399:37)",
              "processImmediate (internal/timers.js:456:21)"
            ]
          }
        }
      }
    },
    "aws_lb_listener": {
      "awsterraformcdktwotierwebapp_lblistener_5053F1C7": {
        "load_balancer_arn": "${aws_lb.awsterraformcdktwotierwebapp_lbwebserver_43AF0541.arn}",
        "port": 80,
        "protocol": "http",
        "default_action": [
          {
            "type": "forward",
            "target_group_arn": "${aws_lb_target_group.awsterraformcdktwotierwebapp_lbtargetgroup_3CBB1C60.arn}"
          }
        ],
        "//": {
          "metadata": {
            "path": "aws-terraformcdk-two-tier-web-app/lb-listener",
            "uniqueId": "awsterraformcdktwotierwebapp_lblistener_5053F1C7",
            "stackTrace": [
              "new TerraformElement (/private/var/folders/kq/f8xdpp8j2xl9y3d57fpjpxwh_xs3np/T/jsii-kernel-GEQkA9/node_modules/cdktf/lib/terraform-element.js:11:28)",
              "new TerraformResource (/private/var/folders/kq/f8xdpp8j2xl9y3d57fpjpxwh_xs3np/T/jsii-kernel-GEQkA9/node_modules/cdktf/lib/terraform-resource.js:9:9)",
              "new LbListener (/private/var/folders/kq/f8xdpp8j2xl9y3d57fpjpxwh_xs3np/T/jsii-kernel-GEQkA9/node_modules/aws/providers/aws/lb-listener.js:13:9)",
              "/Users/jcastans/.local/share/virtualenvs/aws-terraformcdk-two-tier-web-app-wYKQVe1a/lib/python3.8/site-packages/jsii/_embedded/jsii/jsii-runtime.js:7934:49",
              "Kernel._wrapSandboxCode (/Users/jcastans/.local/share/virtualenvs/aws-terraformcdk-two-tier-web-app-wYKQVe1a/lib/python3.8/site-packages/jsii/_embedded/jsii/jsii-runtime.js:8419:20)",
              "Kernel._create (/Users/jcastans/.local/share/virtualenvs/aws-terraformcdk-two-tier-web-app-wYKQVe1a/lib/python3.8/site-packages/jsii/_embedded/jsii/jsii-runtime.js:7934:26)",
              "Kernel.create (/Users/jcastans/.local/share/virtualenvs/aws-terraformcdk-two-tier-web-app-wYKQVe1a/lib/python3.8/site-packages/jsii/_embedded/jsii/jsii-runtime.js:7678:21)",
              "KernelHost.processRequest (/Users/jcastans/.local/share/virtualenvs/aws-terraformcdk-two-tier-web-app-wYKQVe1a/lib/python3.8/site-packages/jsii/_embedded/jsii/jsii-runtime.js:7458:28)",
              "KernelHost.run (/Users/jcastans/.local/share/virtualenvs/aws-terraformcdk-two-tier-web-app-wYKQVe1a/lib/python3.8/site-packages/jsii/_embedded/jsii/jsii-runtime.js:7396:14)",
              "Immediate._onImmediate (/Users/jcastans/.local/share/virtualenvs/aws-terraformcdk-two-tier-web-app-wYKQVe1a/lib/python3.8/site-packages/jsii/_embedded/jsii/jsii-runtime.js:7399:37)",
              "processImmediate (internal/timers.js:456:21)"
            ]
          }
        }
      }
    },
    "aws_instance": {
      "awsterraformcdktwotierwebapp_InstanceA_5FD81582": {
        "ami": "ami-0a7c31280fbd23a86",
        "iam_instance_profile": "${aws_iam_instance_profile.awsterraformcdktwotierwebapp_webserverinstanceprofile_A1693AEC.id}",
        "instance_type": "t2.micro",
        "subnet_id": "${aws_subnet.awsterraformcdktwotierwebapp_PublicSubnet1_F16DEDFC.id}",
        "tags": {
          "Name": "TerraformInstace"
        },
        "//": {
          "metadata": {
            "path": "aws-terraformcdk-two-tier-web-app/InstanceA",
            "uniqueId": "awsterraformcdktwotierwebapp_InstanceA_5FD81582",
            "stackTrace": [
              "new TerraformElement (/private/var/folders/kq/f8xdpp8j2xl9y3d57fpjpxwh_xs3np/T/jsii-kernel-GEQkA9/node_modules/cdktf/lib/terraform-element.js:11:28)",
              "new TerraformResource (/private/var/folders/kq/f8xdpp8j2xl9y3d57fpjpxwh_xs3np/T/jsii-kernel-GEQkA9/node_modules/cdktf/lib/terraform-resource.js:9:9)",
              "new Instance (/private/var/folders/kq/f8xdpp8j2xl9y3d57fpjpxwh_xs3np/T/jsii-kernel-GEQkA9/node_modules/aws/providers/aws/instance.js:13:9)",
              "/Users/jcastans/.local/share/virtualenvs/aws-terraformcdk-two-tier-web-app-wYKQVe1a/lib/python3.8/site-packages/jsii/_embedded/jsii/jsii-runtime.js:7934:49",
              "Kernel._wrapSandboxCode (/Users/jcastans/.local/share/virtualenvs/aws-terraformcdk-two-tier-web-app-wYKQVe1a/lib/python3.8/site-packages/jsii/_embedded/jsii/jsii-runtime.js:8419:20)",
              "Kernel._create (/Users/jcastans/.local/share/virtualenvs/aws-terraformcdk-two-tier-web-app-wYKQVe1a/lib/python3.8/site-packages/jsii/_embedded/jsii/jsii-runtime.js:7934:26)",
              "Kernel.create (/Users/jcastans/.local/share/virtualenvs/aws-terraformcdk-two-tier-web-app-wYKQVe1a/lib/python3.8/site-packages/jsii/_embedded/jsii/jsii-runtime.js:7678:21)",
              "KernelHost.processRequest (/Users/jcastans/.local/share/virtualenvs/aws-terraformcdk-two-tier-web-app-wYKQVe1a/lib/python3.8/site-packages/jsii/_embedded/jsii/jsii-runtime.js:7458:28)",
              "KernelHost.run (/Users/jcastans/.local/share/virtualenvs/aws-terraformcdk-two-tier-web-app-wYKQVe1a/lib/python3.8/site-packages/jsii/_embedded/jsii/jsii-runtime.js:7396:14)",
              "Immediate._onImmediate (/Users/jcastans/.local/share/virtualenvs/aws-terraformcdk-two-tier-web-app-wYKQVe1a/lib/python3.8/site-packages/jsii/_embedded/jsii/jsii-runtime.js:7399:37)",
              "processImmediate (internal/timers.js:456:21)"
            ]
          }
        }
      },
      "awsterraformcdktwotierwebapp_InstanceB_93B8766E": {
        "ami": "ami-0a7c31280fbd23a86",
        "iam_instance_profile": "${aws_iam_instance_profile.awsterraformcdktwotierwebapp_webserverinstanceprofile_A1693AEC.id}",
        "instance_type": "t2.micro",
        "subnet_id": "${aws_subnet.awsterraformcdktwotierwebapp_PublicSubnet2_13945CEF.id}",
        "tags": {
          "Name": "TerraformInstace"
        },
        "//": {
          "metadata": {
            "path": "aws-terraformcdk-two-tier-web-app/InstanceB",
            "uniqueId": "awsterraformcdktwotierwebapp_InstanceB_93B8766E",
            "stackTrace": [
              "new TerraformElement (/private/var/folders/kq/f8xdpp8j2xl9y3d57fpjpxwh_xs3np/T/jsii-kernel-GEQkA9/node_modules/cdktf/lib/terraform-element.js:11:28)",
              "new TerraformResource (/private/var/folders/kq/f8xdpp8j2xl9y3d57fpjpxwh_xs3np/T/jsii-kernel-GEQkA9/node_modules/cdktf/lib/terraform-resource.js:9:9)",
              "new Instance (/private/var/folders/kq/f8xdpp8j2xl9y3d57fpjpxwh_xs3np/T/jsii-kernel-GEQkA9/node_modules/aws/providers/aws/instance.js:13:9)",
              "/Users/jcastans/.local/share/virtualenvs/aws-terraformcdk-two-tier-web-app-wYKQVe1a/lib/python3.8/site-packages/jsii/_embedded/jsii/jsii-runtime.js:7934:49",
              "Kernel._wrapSandboxCode (/Users/jcastans/.local/share/virtualenvs/aws-terraformcdk-two-tier-web-app-wYKQVe1a/lib/python3.8/site-packages/jsii/_embedded/jsii/jsii-runtime.js:8419:20)",
              "Kernel._create (/Users/jcastans/.local/share/virtualenvs/aws-terraformcdk-two-tier-web-app-wYKQVe1a/lib/python3.8/site-packages/jsii/_embedded/jsii/jsii-runtime.js:7934:26)",
              "Kernel.create (/Users/jcastans/.local/share/virtualenvs/aws-terraformcdk-two-tier-web-app-wYKQVe1a/lib/python3.8/site-packages/jsii/_embedded/jsii/jsii-runtime.js:7678:21)",
              "KernelHost.processRequest (/Users/jcastans/.local/share/virtualenvs/aws-terraformcdk-two-tier-web-app-wYKQVe1a/lib/python3.8/site-packages/jsii/_embedded/jsii/jsii-runtime.js:7458:28)",
              "KernelHost.run (/Users/jcastans/.local/share/virtualenvs/aws-terraformcdk-two-tier-web-app-wYKQVe1a/lib/python3.8/site-packages/jsii/_embedded/jsii/jsii-runtime.js:7396:14)",
              "Immediate._onImmediate (/Users/jcastans/.local/share/virtualenvs/aws-terraformcdk-two-tier-web-app-wYKQVe1a/lib/python3.8/site-packages/jsii/_embedded/jsii/jsii-runtime.js:7399:37)",
              "processImmediate (internal/timers.js:456:21)"
            ]
          }
        }
      }
    }
  },
  "output": {
    "awsterraformcdktwotierwebapp_vpcId_46A74267": {
      "value": "${aws_vpc.awsterraformcdktwotierwebapp_CustomVpc_042197E5.id}"
    }
  }
}